{
    "shapes": {
        "DetachClassicLinkVpcResult": {
            "rename": {"Return": "ReturnValue"}
        },
        "SpotInstanceRequest": {
            "rename": {"Type": "SpotType"}
        },
        "CreateVpnGatewayRequest": {
            "rename": {"Type": "GatewayType"}
        },
        "VpnConnectionOptionsSpecification": {
            "rename": {"Type": "ConnectionType"}
        },
        "CreateVpnConnectionRequest": {
            "rename": {"Type": "ConnectionType"}
        },
        "RejectVpcPeeringConnectionResult": {
            "rename": {"Return": "ReturnValue"}
        },
        "EnableVpcClassicLinkResult": {
            "rename": {"Return": "ReturnValue"}
        },
        "DisableVpcClassicLinkResult": {
            "rename": {"Return": "ReturnValue"}
        },
        "DeleteVpcPeeringConnectionResult": {
            "rename": {"Return": "ReturnValue"}
        },
        "CustomerGateway": {
            "rename": {"Type": "GatewayType"}
        },
        "AttachClassicLinkVpcResult": {
            "rename": {"Return": "ReturnValue"}
        },
        "AvailabilityZone": {
            "rename": {"Type": "GatewayType"}
        },
        "RequestSpotInstancesRequest": {
            "rename": {"Type": "SpotType"}
        },
        "IcmpTypeCode": {
            "rename": {"Type": "IcmpType"}
        },
        "VpnConnection": {
            "rename": {"Type": "GatewayType"}
        },
        "VpnGateway": {
            "rename": {"Type": "GatewayType"}
        },
        "CreateCustomerGatewayRequest": {
            "rename": {"Type": "GatewayType"}
        },
        "ProductCode": {
            "rename": {"Type": "ProductType"}
        },
        "DescribeInstancesRequest": {
            "locations": {"DryRun": "DryRun"}
        },
        "RIProductDescription": {
            "variants": ["Linux","LinuxVpc","Windows","WindowsVpc"]
        },
        "DescribeVpcsResult": {
            "required": ["Vpcs"]
        },
        "DescribeSubnetsResult": {
            "required": ["Subnets"]
        },
        "DescribeInstancesResult": {
            "required": ["Reservations"]
        },
        "CreateVpcRequest": {
            "required": ["CidrBlock"],
            "locations": {"InstanceTenancy": "InstanceTenancy"}
        },
        "CreateVpcResult": {
            "required": ["Vpc"]
        },
        "DeleteVpcResult": {
            "required": ["return"],
            "rename": {"return": "result"}
        },
        "Tag": {
            "required": [
                "Key",
                "Value"
            ]
        },
        "Reservation": {
            "required": [
                "ReservationId",
                "OwnerId"
            ]
        },
        "Instance": {
            "required": [
                "InstanceId",
                "ImageId",
                "AmiLaunchIndex",
                "InstanceType",
                "LaunchTime",
                "Placement",
                "Monitoring",
                "Architecture",
                "RootDeviceType",
                "VirtualizationType",
                "Hypervisor",
                "EbsOptimized",
                "State"
            ]
        },
        "Vpc": {
            "required": [
                "CidrBlock",
                "DhcpOptionsId",
                "InstanceTenancy",
                "State",
                "VpcId"
            ]
        },
        "Subnet": {
            "required": [
                "AvailabilityZone",
                "AvailableIpAddressCount",
                "CidrBlock",
                "DefaultForAz",
                "MapPublicIpOnLaunch",
                "State",
                "SubnetId",
                "VpcId"
            ]
        }
    }
}
